a contact +14 +40 15 16 1 1
a contact +25 +37 7 10 1 1
a contact +21 +36 9 16 1 1
a contact +27 +51 8 5 1 1
a contact +12 +42 16 2 1 1
a contact +21 +47 6 7 1 1
a contact +11 +17 12 10 1 1
a contact +23 +32 4 18 1 1
a contact +5 +27 13 18 1 1
a contact +34 +55 4 18 1 1
a contact +30 +35 1 8 1 1
a contact +12 +22 14 13 1 1
a contact +9 +32 6 5 1 1
a contact +15 +16 12 9 1 1
a contact +28 +41 11 4 1 1
a contact +22 +50 2 20 1 1
a contact +27 +52 13 17 1 1
a contact +2 +31 20 7 1 1
a contact +14 +39 4 16 1 1
a contact +10 +25 5 19 1 1
a contact +6 +28 2 3 1 1
a contact +12 +31 17 6 1 1
a contact +23 +45 1 11 1 1
a contact +11 +35 10 4 1 1
a contact +45 +67 13 18 1 1
a contact +20 +49 16 10 1 1
a contact +1 +7 5 6 1 1
a contact +9 +10 17 7 1 1
a contact +7 +9 5 10 1 1
a contact +90 +115 13 18 1 1
a contact +4 +20 20 16 1 1
a contact +8 +24 7 17 1 1
a contact +23 +49 17 11 1 1
a contact +29 +33 2 7 1 1
a contact +35 +45 2 7 1 1
a contact +1 +6 17 16 1 1
a contact +14 +36 18 15 1 1
a contact +19 +33 9 4 1 1
a contact +2 +32 11 5 1 1
a contact +20 +25 12 8 1 1
a contact +18 +24 5 1 1 1
a contact +1 +3 19 18 1 1
a contact +11 +23 16 3 1 1
a contact +8 +15 18 3 1 1
a contact +20 +27 9 2 1 1
a contact +20 +27 17 9 1 1
a contact +6 +23 5 4 1 1
a contact +13 +21 11 7 1 1
a contact +5 +13 19 2 1 1
a contact +9 +35 11 16 1 1
a contact +29 +36 10 2 1 1
a contact +6 +31 16 6 1 1
a contact +1 +26 19 15 1 1
a contact +23 +31 3 13 1 1
a contact +30 +44 8 16 1 1
a contact +13 +24 18 17 1 1
a contact +9 +21 2 1 1 1
a contact +23 +47 6 18 1 1
a contact +21 +32 16 11 1 1
a contact +28 +35 15 10 1 1
a contact +11 +38 4 10 1 1
a contact +16 +30 9 18 1 1
a contact +3 +29 8 2 1 1
a contact +7 +14 6 3 1 1
a contact +18 +48 3 17 1 1
a contact +23 +43 14 3 1 1
a contact +22 +51 13 4 1 1
a contact +5 +15 5 9 1 1
a contact +28 +37 11 8 1 1
a contact +46 +70 5 4 1 1
a contact +20 +42 17 15 1 1
a contact +20 +24 10 8 1 1
a contact +4 +34 17 19 1 1
a contact +46 +61 1 8 1 1
a contact +44 +51 3 13 1 1
a contact +9 +32 13 20 1 1
a contact +2 +23 7 6 1 1
a contact +43 +50 9 16 1 1
a contact +28 +29 2 18 1 1
a contact +55 +63 17 15 1 1
a contact +8 +17 10 3 1 1
a contact +9 +36 5 12 1 1
a contact +42 +50 10 2 1 1
a contact +7 +34 4 14 1 1
a contact +3 +4 14 12 1 1
a contact +20 +36 6 10 1 1
a contact +12 +33 18 9 1 1
a contact +48 +53 16 3 1 1
a contact +35 +40 12 9 1 1
a contact +1 +6 18 4 1 1
a contact +19 +28 4 6 1 1
a contact +24 +50 3 5 1 1
a contact +53 +73 9 16 1 1
a contact +27 +53 16 19 1 1
a contact +41 +58 12 9 1 1
a contact +80 +84 13 17 1 1
a contact +13 +28 16 4 1 1
a contact +19 +41 7 13 1 1
a contact +55 +77 18 9 1 1
a contact +10 +23 13 16 1 1
